<svg width="31" height="33" viewBox="0 0 31 33" fill="none" xmlns="http://www.w3.org/2000/svg">
<path d="M2.10291 2.83838C6.14841 3.22444 10.1741 3.09657 14.2129 3.02383M19.5618 14.328C16.7314 17.1332 14.3021 20.2212 11.2389 22.7507M28.7406 19.8124C28.345 23.3496 28.1128 26.7629 28.2236 30.3142" stroke="#F0FFFF" stroke-width="4" stroke-linecap="round"/>
</svg>
